Package Display Name,Package Name,Package Version,Author,Release Date,Link to Confluence or/Share point for release notes,Link to Confluence or/Share point for release checklist,Tag/Label,Tags/Keywords,Supported Version,Package Location
APx5xx Series,adi_zcg_lib_apx5xx_series-1.0.0.1.vip,1.0.0.1,AZCG Central,,www.analog.com,,,,,Reusables/Instrument Dependencies/Low Level Drivers
Agilent E363X Series,agilent_e363x_series-3.1.1.2.vip,3.1.1.2,AZCG Central,,www.analog.com,,,,,Reusables/Instrument Dependencies/Low Level Drivers
Agilent 3352X Series,ni_idnet_lib_agilent_3352x_series-1.2.2.1.vip,1.2.2.1,AZCG Central,,www.analog.com,,,,,Reusables/Instrument Dependencies/Low Level Drivers
Agilent 33XXX Series,ni_idnet_lib_agilent_33xxx_series-2.1.4.1.vip,2.1.4.1,AZCG Central,,www.analog.com,,,,,Reusables/Instrument Dependencies/Low Level Drivers
Agilent 34401,ni_idnet_lib_agilent_34401-1.0.0.2.vip,1.0.0.2,AZCG Central,,www.analog.com,,,,,Reusables/Instrument Dependencies/Low Level Drivers
Agilent 3458A,ni_idnet_lib_agilent_3458-1.0.2.1.vip,1.0.2.1,AZCG Central,,www.analog.com,,,,,Reusables/Instrument Dependencies/Low Level Drivers
Agilent 34970A Mux,ni_idnet_lib_agilent_34970-3.1.1.1.vip,3.1.1.1,AZCG Central,,www.analog.com,,,,,Reusables/Instrument Dependencies/Low Level Drivers
Agilent E364X Series,ni_idnet_lib_agilent_e364x_series-2.1.0.1.vip,2.1.0.1,AZCG Central,,www.analog.com,,,,,Reusables/Instrument Dependencies/Low Level Drivers
Agilent E441X Series,ni_idnet_lib_agilent_e441x_series-2.1.1.1.vip,2.1.1.1,AZCG Central,,www.analog.com,,,,,Reusables/Instrument Dependencies/Low Level Drivers
Agilent ENA,ni_idnet_lib_agilent_ena_series-2.3.1.1.vip,2.3.1.1,AZCG Central,,www.analog.com,,,,,Reusables/Instrument Dependencies/Low Level Drivers
Agilent PSG MXG Series,ni_idnet_lib_agilent_psg_mxg_series-2.0.1.1.vip,2.0.1.1,AZCG Central,,www.analog.com,,,,,Reusables/Instrument Dependencies/Low Level Drivers
HMC-T21xx,ni_idnet_lib_hmc_t21xx-1.1.0.0.vip,1.1.0.0,AZCG Central,,www.analog.com,,,,,Reusables/Instrument Dependencies/Low Level Drivers
Keithley 2002,ni_idnet_lib_ke2002-1.0.0.2.vip,1.0.0.2,AZCG Central,,www.analog.com,,,,,Reusables/Instrument Dependencies/Low Level Drivers
Keithley 7001,ni_idnet_lib_ke7001-1.0.0.2.vip,1.0.0.2,AZCG Central,,www.analog.com,,,,,Reusables/Instrument Dependencies/Low Level Drivers
Keithley 2000,ni_idnet_lib_keithley_2000-3.0.1.2.vip,3.0.1.2,AZCG Central,,www.analog.com,,,,,Reusables/Instrument Dependencies/Low Level Drivers
Keithley_2450,ni_idnet_lib_keithley_2450-1.3.0.1.vip,1.3.0.1,AZCG Central,,www.analog.com,,,,,Reusables/Instrument Dependencies/Low Level Drivers
Keithley 24xx,ni_idnet_lib_keithley_24xx-1.2.5.1.vip,1.2.5.1,AZCG Central,,www.analog.com,,,,,Reusables/Instrument Dependencies/Low Level Drivers
Keysight E363XX Series,ni_idnet_lib_keysight_e36300_series-1.0.1.1.vip,1.0.1.1,AZCG Central,,www.analog.com,,,,,Reusables/Instrument Dependencies/Low Level Drivers
Tektronix 7000 Series,ni_idnet_lib_tektronix_7000_series-4.1.1.1.vip,4.1.1.1,AZCG Central,,www.analog.com,,,,,Reusables/Instrument Dependencies/Low Level Drivers
Temptronic ATS-5xx_6xx,ni_idnet_lib_temptronic_ats_5xx_6xx-1.0.1.1.vip,1.0.1.1,AZCG Central,,www.analog.com,,,,,Reusables/Instrument Dependencies/Low Level Drivers
Temptronic ATS-7xx_8xx,ni_idnet_lib_temptronic_ats_7xx_8xx-1.0.0.1.vip,1.0.0.1,AZCG Central,,www.analog.com,,,,,Reusables/Instrument Dependencies/Low Level Drivers
Temptronic TP04300,ni_idnet_lib_temptronic_tp04300-2.0.1.1.vip,2.0.1.1,AZCG Central,,www.analog.com,,,,,Reusables/Instrument Dependencies/Low Level Drivers
Temptronic TP04310,ni_idnet_lib_temptronic_tp04310-1.0.1.1.vip,1.0.1.1,AZCG Central,,www.analog.com,,,,,Reusables/Instrument Dependencies/Low Level Drivers
ThorActiveX,thor_labs_lib_thoractivex-1.0.0.3.vip,1.0.0.3,AZCG Central,,www.analog.com,,,,,Reusables/Instrument Dependencies/Low Level Drivers
